{"frames": {

"Picto_coin.png":
{
	"frame": {"x":1663,"y":123,"w":119,"h":129},
	"rotated": false,
	"trimmed": false,
	"spriteSourceSize": {"x":0,"y":0,"w":119,"h":129},
	"sourceSize": {"w":119,"h":129}
},
"Picto_cross.png":
{
	"frame": {"x":1663,"y":383,"w":115,"h":115},
	"rotated": false,
	"trimmed": false,
	"spriteSourceSize": {"x":0,"y":0,"w":115,"h":115},
	"sourceSize": {"w":115,"h":115}
},
"Picto_crown.png":
{
	"frame": {"x":1548,"y":1652,"w":190,"h":130},
	"rotated": false,
	"trimmed": false,
	"spriteSourceSize": {"x":0,"y":0,"w":190,"h":130},
	"sourceSize": {"w":190,"h":130}
},
"Picto_jewels.png":
{
	"frame": {"x":1663,"y":500,"w":122,"h":114},
	"rotated": false,
	"trimmed": false,
	"spriteSourceSize": {"x":0,"y":0,"w":122,"h":114},
	"sourceSize": {"w":122,"h":114}
},
"Picto_lighting.png":
{
	"frame": {"x":1663,"y":254,"w":115,"h":127},
	"rotated": false,
	"trimmed": false,
	"spriteSourceSize": {"x":0,"y":0,"w":115,"h":127},
	"sourceSize": {"w":115,"h":127}
},
"Picto_shield.png":
{
	"frame": {"x":554,"y":1834,"w":98,"h":115},
	"rotated": false,
	"trimmed": false,
	"spriteSourceSize": {"x":0,"y":0,"w":98,"h":115},
	"sourceSize": {"w":98,"h":115}
},
"Picto_star.png":
{
	"frame": {"x":1663,"y":1,"w":130,"h":120},
	"rotated": false,
	"trimmed": false,
	"spriteSourceSize": {"x":0,"y":0,"w":130,"h":120},
	"sourceSize": {"w":130,"h":120}
},
"Windows_back_big.png":
{
	"frame": {"x":1,"y":1,"w":1045,"h":716},
	"rotated": false,
	"trimmed": false,
	"spriteSourceSize": {"x":0,"y":0,"w":1045,"h":716},
	"sourceSize": {"w":1045,"h":716}
},
"Windows_back_info.png":
{
	"frame": {"x":1120,"y":653,"w":618,"h":423},
	"rotated": false,
	"trimmed": false,
	"spriteSourceSize": {"x":0,"y":0,"w":618,"h":423},
	"sourceSize": {"w":618,"h":423}
},
"Windows_back_medium.png":
{
	"frame": {"x":1,"y":719,"w":612,"h":716},
	"rotated": false,
	"trimmed": false,
	"spriteSourceSize": {"x":0,"y":0,"w":612,"h":716},
	"sourceSize": {"w":612,"h":716}
},
"Windows_back_pause.png":
{
	"frame": {"x":615,"y":719,"w":503,"h":717},
	"rotated": false,
	"trimmed": false,
	"spriteSourceSize": {"x":0,"y":0,"w":503,"h":717},
	"sourceSize": {"w":503,"h":717}
},
"Windows_back_win.png":
{
	"frame": {"x":1048,"y":1,"w":613,"h":650},
	"rotated": false,
	"trimmed": false,
	"spriteSourceSize": {"x":0,"y":0,"w":613,"h":650},
	"sourceSize": {"w":613,"h":650}
},
"Windows_bottom_big.png":
{
	"frame": {"x":1120,"y":1399,"w":714,"h":163},
	"rotated": false,
	"trimmed": false,
	"spriteSourceSize": {"x":0,"y":0,"w":714,"h":163},
	"sourceSize": {"w":714,"h":163}
},
"Windows_bottom_win.png":
{
	"frame": {"x":1003,"y":1808,"w":473,"h":142},
	"rotated": false,
	"trimmed": false,
	"spriteSourceSize": {"x":0,"y":0,"w":473,"h":142},
	"sourceSize": {"w":473,"h":142}
},
"Windows_ico_left_placeholder.png":
{
	"frame": {"x":670,"y":1768,"w":331,"h":121},
	"rotated": false,
	"trimmed": false,
	"spriteSourceSize": {"x":0,"y":0,"w":331,"h":121},
	"sourceSize": {"w":331,"h":121}
},
"Windows_ico_left_placeholder_big.png":
{
	"frame": {"x":1040,"y":1686,"w":505,"h":120},
	"rotated": false,
	"trimmed": false,
	"spriteSourceSize": {"x":0,"y":0,"w":505,"h":120},
	"sourceSize": {"w":505,"h":120}
},
"Windows_ico_right_placeholder.png":
{
	"frame": {"x":1478,"y":1808,"w":331,"h":121},
	"rotated": false,
	"trimmed": false,
	"spriteSourceSize": {"x":0,"y":0,"w":331,"h":121},
	"sourceSize": {"w":331,"h":121}
},
"Windows_ico_right_placeholder_big.png":
{
	"frame": {"x":1040,"y":1564,"w":506,"h":120},
	"rotated": false,
	"trimmed": false,
	"spriteSourceSize": {"x":0,"y":0,"w":506,"h":120},
	"sourceSize": {"w":506,"h":120}
},
"Windows_place_holder.png":
{
	"frame": {"x":1548,"y":1564,"w":272,"h":86},
	"rotated": false,
	"trimmed": false,
	"spriteSourceSize": {"x":0,"y":0,"w":272,"h":86},
	"sourceSize": {"w":272,"h":86}
},
"Windows_top_medium.png":
{
	"frame": {"x":1,"y":1437,"w":551,"h":112},
	"rotated": false,
	"trimmed": false,
	"spriteSourceSize": {"x":0,"y":0,"w":551,"h":112},
	"sourceSize": {"w":551,"h":112}
},
"Windows_top_big.png":
{
	"frame": {"x":1,"y":1551,"w":715,"h":144},
	"rotated": false,
	"trimmed": false,
	"spriteSourceSize": {"x":0,"y":0,"w":715,"h":144},
	"sourceSize": {"w":715,"h":144}
},
"Windows_top_crown.png":
{
	"frame": {"x":718,"y":1547,"w":320,"h":219},
	"rotated": false,
	"trimmed": false,
	"spriteSourceSize": {"x":0,"y":0,"w":320,"h":219},
	"sourceSize": {"w":320,"h":219}
},
"Windows_top_info.png":
{
	"frame": {"x":554,"y":1438,"w":525,"h":107},
	"rotated": false,
	"trimmed": false,
	"spriteSourceSize": {"x":0,"y":0,"w":525,"h":107},
	"sourceSize": {"w":525,"h":107}
},
"Windows_top_pause.png":
{
	"frame": {"x":1,"y":1834,"w":551,"h":112},
	"rotated": false,
	"trimmed": false,
	"spriteSourceSize": {"x":0,"y":0,"w":551,"h":112},
	"sourceSize": {"w":551,"h":112}
},
"Windows_top_suncast.png":
{
	"frame": {"x":1120,"y":1078,"w":648,"h":319},
	"rotated": false,
	"trimmed": false,
	"spriteSourceSize": {"x":0,"y":0,"w":648,"h":319},
	"sourceSize": {"w":648,"h":319}
},
"Windows_top_win.png":
{
	"frame": {"x":1,"y":1697,"w":667,"h":135},
	"rotated": false,
	"trimmed": false,
	"spriteSourceSize": {"x":0,"y":0,"w":667,"h":135},
	"sourceSize": {"w":667,"h":135}
}},
"meta": {
	"app": "http://www.codeandweb.com/texturepacker",
	"version": "1.0",
	"image": "Windows.png",
	"format": "RGBA8888",
	"size": {"w":1835,"h":1951},
	"scale": "1",
	"smartupdate": "$TexturePacker:SmartUpdate:89bf036a649a76b5782759c1aca47c23:af5ac8ab4827b199c6bcf4c946fc7b41:11cb17cfa12ee9dac3aeebdc43bfbd44$"
}
}
