{"frames": [

{
	"filename": "dash1.png",
	"frame": {"x":0,"y":0,"w":2020,"h":1035},
	"rotated": false,
	"trimmed": false,
	"spriteSourceSize": {"x":0,"y":0,"w":2020,"h":1035},
	"sourceSize": {"w":2020,"h":1035},
	"pivot": {"x":0.5,"y":0.5}
},
{
	"filename": "dash2.png",
	"frame": {"x":0,"y":1035,"w":2020,"h":1035},
	"rotated": false,
	"trimmed": false,
	"spriteSourceSize": {"x":0,"y":0,"w":2020,"h":1035},
	"sourceSize": {"w":2020,"h":1035},
	"pivot": {"x":0.5,"y":0.5}
},
{
	"filename": "dash3.png",
	"frame": {"x":0,"y":2070,"w":2020,"h":1035},
	"rotated": false,
	"trimmed": false,
	"spriteSourceSize": {"x":0,"y":0,"w":2020,"h":1035},
	"sourceSize": {"w":2020,"h":1035},
	"pivot": {"x":0.5,"y":0.5}
},
{
	"filename": "idle1.png",
	"frame": {"x":0,"y":3105,"w":679,"h":604},
	"rotated": false,
	"trimmed": false,
	"spriteSourceSize": {"x":0,"y":0,"w":679,"h":604},
	"sourceSize": {"w":679,"h":604},
	"pivot": {"x":0.5,"y":0.5}
},
{
	"filename": "idle2.png",
	"frame": {"x":679,"y":3105,"w":679,"h":604},
	"rotated": false,
	"trimmed": false,
	"spriteSourceSize": {"x":0,"y":0,"w":679,"h":604},
	"sourceSize": {"w":679,"h":604},
	"pivot": {"x":0.5,"y":0.5}
},
{
	"filename": "run1.png",
	"frame": {"x":0,"y":3709,"w":697,"h":660},
	"rotated": false,
	"trimmed": false,
	"spriteSourceSize": {"x":0,"y":0,"w":697,"h":660},
	"sourceSize": {"w":697,"h":660},
	"pivot": {"x":0.5,"y":0.5}
},
{
	"filename": "run2.png",
	"frame": {"x":697,"y":3709,"w":697,"h":660},
	"rotated": false,
	"trimmed": false,
	"spriteSourceSize": {"x":0,"y":0,"w":697,"h":660},
	"sourceSize": {"w":697,"h":660},
	"pivot": {"x":0.5,"y":0.5}
},
{
	"filename": "run3.png",
	"frame": {"x":0,"y":4369,"w":697,"h":660},
	"rotated": false,
	"trimmed": false,
	"spriteSourceSize": {"x":0,"y":0,"w":697,"h":660},
	"sourceSize": {"w":697,"h":660},
	"pivot": {"x":0.5,"y":0.5}
},
{
	"filename": "run4.png",
	"frame": {"x":697,"y":4369,"w":697,"h":660},
	"rotated": false,
	"trimmed": false,
	"spriteSourceSize": {"x":0,"y":0,"w":697,"h":660},
	"sourceSize": {"w":697,"h":660},
	"pivot": {"x":0.5,"y":0.5}
}],
"meta": {
	"app": "http://www.codeandweb.com/texturepacker",
	"version": "1.0",
	"image": "Anim.png",
	"format": "RGBA8888",
	"size": {"w":2020,"h":5029},
	"scale": "1",
	"smartupdate": "$TexturePacker:SmartUpdate:37a8678a93002da27cff333ed08b0f21:30c6741b939f9cd2c53fd782c059d3c7:0e6d7fe4d29ca6d22eaecdc81f4b65b4$"
}
}
